{
    "X0": {
        "cpt": [
            0.31429042022278458,
            0.68570957977721547,
            0.97852589211034058,
            0.021474107889659422,
            0.58660381742469958,
            0.41339618257530042,
            0.049782370098743839,
            0.95021762990125613
        ],
        "domainSize": 2,
        "name": "X0",
        "parents": [
            "X8",
            "X6"
        ]
    },
    "X1": {
        "cpt": [
            0.8963673801933254,
            0.1036326198066746
        ],
        "domainSize": 2,
        "name": "X1",
        "parents": []
    },
    "X10": {
        "cpt": [
            0.55712286970063163,
            0.44287713029936837,
            0.12165689563399688,
            0.87834310436600316,
            0.84890694882979112,
            0.15109305117020888,
            0.61582525742601668,
            0.38417474257398332,
            0.31914303579362324,
            0.68085696420637676,
            0.78083607949967082,
            0.21916392050032918,
            0.30171984689754283,
            0.69828015310245717,
            0.19154729887554878,
            0.80845270112445122
        ],
        "domainSize": 2,
        "name": "X10",
        "parents": [
            "X6",
            "X13",
            "X1"
        ]
    },
    "X11": {
        "cpt": [
            0.9902285460659197,
            0.0097714539340802986,
            0.050500454969181402,
            0.94949954503081857,
            0.5810222975215541,
            0.4189777024784459,
            0.91945658172689038,
            0.080543418273109624,
            0.37156824741398181,
            0.62843175258601813,
            0.024958533567659195,
            0.9750414664323408,
            0.84164256237936996,
            0.15835743762063004,
            0.67843511121223898,
            0.32156488878776102
        ],
        "domainSize": 2,
        "name": "X11",
        "parents": [
            "X3",
            "X6",
            "X0"
        ]
    },
    "X12": {
        "cpt": [
            0.87014507777150674,
            0.12985492222849326,
            0.249690283102914,
            0.75030971689708603,
            0.65880405616326754,
            0.34119594383673246,
            0.99386627339882172,
            0.0061337266011782798,
            0.048154051145982875,
            0.95184594885401708,
            0.14661026548441691,
            0.85338973451558309,
            0.020288683487836707,
            0.97971131651216325,
            0.77190300327919914,
            0.22809699672080086
        ],
        "domainSize": 2,
        "name": "X12",
        "parents": [
            "X9",
            "X2",
            "X13"
        ]
    },
    "X13": {
        "cpt": [
            0.92556476908230279,
            0.074435230917697215,
            0.66984117581929381,
            0.33015882418070619
        ],
        "domainSize": 2,
        "name": "X13",
        "parents": [
            "X8"
        ]
    },
    "X14": {
        "cpt": [
            0.087766212894291901,
            0.91223378710570813,
            0.71396422641867829,
            0.28603577358132171,
            0.42542192567870585,
            0.57457807432129415,
            0.45103149547427324,
            0.54896850452572676,
            0.41644963621345027,
            0.58355036378654979,
            0.0056344535201287953,
            0.99436554647987119,
            0.8847810009798831,
            0.1152189990201169,
            0.08852865578970541,
            0.91147134421029463
        ],
        "domainSize": 2,
        "name": "X14",
        "parents": [
            "X1",
            "X9",
            "X0"
        ]
    },
    "X2": {
        "cpt": [
            0.043632883227806202,
            0.95636711677219377,
            0.012724801908277607,
            0.98727519809172237
        ],
        "domainSize": 2,
        "name": "X2",
        "parents": [
            "X10"
        ]
    },
    "X3": {
        "cpt": [
            0.76780295464981096,
            0.23219704535018904
        ],
        "domainSize": 2,
        "name": "X3",
        "parents": []
    },
    "X4": {
        "cpt": [
            0.13978948428266622,
            0.86021051571733376,
            0.41806873543805212,
            0.58193126456194788,
            0.78479190084945427,
            0.21520809915054573,
            0.13364006397153719,
            0.86635993602846284
        ],
        "domainSize": 2,
        "name": "X4",
        "parents": [
            "X12",
            "X6"
        ]
    },
    "X5": {
        "cpt": [
            0.84255219613520438,
            0.15744780386479562,
            0.53643954903452906,
            0.46356045096547094,
            0.75858308697087296,
            0.24141691302912704,
            0.43658349611642738,
            0.56341650388357256
        ],
        "domainSize": 2,
        "name": "X5",
        "parents": [
            "X1",
            "X2"
        ]
    },
    "X6": {
        "cpt": [
            0.26823461153692618,
            0.73176538846307382,
            0.78382702047936792,
            0.21617297952063208,
            0.034884477307930102,
            0.9651155226920699,
            0.83787256878476535,
            0.16212743121523465,
            0.055925450306630972,
            0.94407454969336901,
            0.92323432462603583,
            0.076765675373964171,
            0.49512295645008514,
            0.50487704354991481,
            0.42136227006506316,
            0.57863772993493678
        ],
        "domainSize": 2,
        "name": "X6",
        "parents": [
            "X1",
            "X13",
            "X8"
        ]
    },
    "X7": {
        "cpt": [
            0.29506340262329372,
            0.70493659737670633,
            0.040167680317562474,
            0.95983231968243754,
            0.21303307426348106,
            0.78696692573651894,
            0.16758003432483254,
            0.83241996567516741
        ],
        "domainSize": 2,
        "name": "X7",
        "parents": [
            "X13",
            "X9"
        ]
    },
    "X8": {
        "cpt": [
            0.44346587046236663,
            0.55653412953763337,
            0.70460155141580816,
            0.29539844858419184
        ],
        "domainSize": 2,
        "name": "X8",
        "parents": [
            "X3"
        ]
    },
    "X9": {
        "cpt": [
            0.68977852378966142,
            0.31022147621033858,
            0.41099921508447146,
            0.58900078491552854
        ],
        "domainSize": 2,
        "name": "X9",
        "parents": [
            "X2"
        ]
    }
}