{
  "truePolicy" : true,
  "agentExploration": 1.0,
  "parentExtensionStrategy" : "Conservative",
  "expertMessagesMinInterval" : 10,
  "subOptimalThresh" : 0.01,
  "structuralUpdateFrequency": 100,
  "structLearnConfig" : {
    "aliveThresh": 0.001,
    "alphaStrength": 5.0,
    "singleParentCost" : 0.1,
    "maxParents" : 4
  },
  "inReasonableMix": 0.99,
  "enforceConnectivity": true
}
